Data Viz Project
…
2016 candidates that scored the most votes

library(tidyverse)
primary_results %>% arrange(fraction_votes)

## # A tibble: 24,611 x 8
##    state state_abbreviat~ county   fips party candidate votes
##    <chr> <chr>            <chr>   <int> <chr> <chr>     <int>
##  1 Alas~ AK               State~ 9.02e7 Demo~ Hillary ~     0
##  2 Alas~ AK               State~ 9.02e7 Demo~ Hillary ~     0
##  3 Alas~ AK               State~ 9.02e7 Demo~ Hillary ~     0
##  4 Alas~ AK               State~ 9.02e7 Demo~ Hillary ~     0
##  5 Alas~ AK               State~ 9.02e7 Demo~ Hillary ~     0
##  6 Alas~ AK               State~ 9.02e7 Demo~ Hillary ~     0
##  7 Alas~ AK               State~ 9.02e7 Demo~ Hillary ~     0
##  8 Alas~ AK               State~ 9.02e7 Demo~ Hillary ~     0
##  9 Alas~ AK               State~ 9.02e7 Demo~ Hillary ~     0
## 10 Alas~ AK               State~ 9.02e7 Demo~ Hillary ~     0
## # ... with 24,601 more rows, and 1 more variable: fraction_votes <dbl>
…
